{
  "LuaSnip": { "branch": "master", "commit": "e808bee352d1a6fcf902ca1a71cee76e60e24071" },
  "cmp-buffer": { "branch": "main", "commit": "3022dbc9166796b644a841a02de8dd1cc1d311fa" },
  "cmp-cmdline": { "branch": "main", "commit": "d250c63aa13ead745e3a40f61fdd3470efde3923" },
  "cmp-emoji": { "branch": "main", "commit": "e8398e2adf512a03bb4e1728ca017ffeac670a9f" },
  "cmp-git": { "branch": "main", "commit": "50d526dff0f6bc441b51fc269d9fdc99a50c76af" },
  "cmp-nvim-lsp": { "branch": "main", "commit": "39e2eda76828d88b773cc27a3f61d2ad782c922d" },
  "cmp-nvim-lua": { "branch": "main", "commit": "f12408bdb54c39c23e67cab726264c10db33ada8" },
  "cmp-path": { "branch": "main", "commit": "91ff86cd9c29299a64f968ebb45846c485725f23" },
  "cmp_luasnip": { "branch": "master", "commit": "05a9ab28b53f71d1aece421ef32fee2cb857a843" },
  "conform.nvim": { "branch": "master", "commit": "f5bd8419f8a29451e20bdb1061a54fe13d5c8de3" },
  "copilot.lua": { "branch": "master", "commit": "f8d8d872bb319f640d5177dad5fbf01f7a16d7d0" },
  "crates.nvim": { "branch": "main", "commit": "8bf8358ee326d5d8c11dcd7ac0bcc9ff97dbc785" },
  "gruvbox.nvim": { "branch": "main", "commit": "49d9c0b150ba70efcd831ec7b3cb8ee740067045" },
  "guess-indent.nvim": { "branch": "main", "commit": "6cd61f7a600bb756e558627cd2e740302c58e32d" },
  "harpoon": { "branch": "harpoon2", "commit": "0378a6c428a0bed6a2781d459d7943843f374bce" },
  "lazy.nvim": { "branch": "main", "commit": "1159bdccd8910a0fd0914b24d6c3d186689023d9" },
  "mason-lspconfig": { "branch": "main", "commit": "25c11854aa25558ee6c03432edfa0df0217324be" },
  "mason-tool-installer.nvim": { "branch": "main", "commit": "c5e07b8ff54187716334d585db34282e46fa2932" },
  "mason.nvim": { "branch": "main", "commit": "e2f7f9044ec30067bc11800a9e266664b88cda22" },
  "mini.nvim": { "branch": "main", "commit": "8d94201fece82559881362da80063a4842b6c4c4" },
  "nvim-autopairs": { "branch": "master", "commit": "ee297f215e95a60b01fde33275cc3c820eddeebe" },
  "nvim-cmp": { "branch": "main", "commit": "82bd4b59432d44cf5e2a5ce3a40a037a575a6623" },
  "nvim-colorizer.lua": { "branch": "master", "commit": "0671e0eabc6842676d3310370e8fae4e1c51d7f9" },
  "nvim-lspconfig": { "branch": "master", "commit": "fd49d5863e873891be37afac79b1f56fb34bb5d3" },
  "nvim-tree.lua": { "branch": "master", "commit": "2a268f631da85e83b7a95291be589bcddfc785d8" },
  "nvim-treesitter": { "branch": "master", "commit": "d53df0c987d2f731001f73d176090efb73d8f60f" },
  "nvim-web-devicons": { "branch": "master", "commit": "19d257cf889f79f4022163c3fbb5e08639077bd8" },
  "oil.nvim": { "branch": "master", "commit": "39dbf875861449cf09e936fa80073f3413e9439c" },
  "pest.vim": { "branch": "master", "commit": "7cfcb43f824e74d13dfe631359fff2ec23836a77" },
  "plenary.nvim": { "branch": "master", "commit": "2d9b06177a975543726ce5c73fca176cedbffe9d" },
  "quickfix-reflector.vim": { "branch": "master", "commit": "6a6a9e28e1713b9e9db99eec1e6672e5666c01b9" },
  "rust-tools.nvim": { "branch": "master", "commit": "676187908a1ce35ffcd727c654ed68d851299d3e" },
  "stabilize.nvim": { "branch": "master", "commit": "eeb1873daffaba67246188a5668b366e45ed1de1" },
  "telescope-fzf-native.nvim": { "branch": "main", "commit": "cf48d4dfce44e0b9a2e19a008d6ec6ea6f01a83b" },
  "telescope-ui-select.nvim": { "branch": "master", "commit": "6e51d7da30bd139a6950adf2a47fda6df9fa06d2" },
  "telescope.nvim": { "branch": "preview-opt-inheritance", "commit": "ed7972e8bdb27d6b55d680ef8dcd7edc2915ec24" },
  "trouble.nvim": { "branch": "main", "commit": "254145ffd528b98eb20be894338e2d5c93fa02c2" },
  "undotree": { "branch": "master", "commit": "78b5241191852ffa9bb5da5ff2ee033160798c3b" },
  "zen-mode.nvim": { "branch": "main", "commit": "29b292bdc58b76a6c8f294c961a8bf92c5a6ebd6" }
}
